{
	"ApplicationHeader": "USPClientCore",
	"Copyright": "Center for Advanced Public Safety",
	"CopyrightYear": "2017",
	"LoginImage": "images/mccd_patch.png",
	"ContactUs": "",
	"ContactUsEmailSubject": "",
	"RemoteCouchDBUrl": "",
	"CouchDBName": "",
	"apiUrl": "",
	"historyApiUrl": "",
	"themeConfig": {
		"themes": [
			{
				"name": "united",
				"src": "assets/themes/united.min.css",
				"bg": "white",
				"primary": "#E95420",
				"secondary": "#AEA79F",
				"success": "#38B44A",
				"info": "#17a2b8",
				"warning": "#EFB73E",
				"danger": "#DF382C",
				"link": "#E95420",
				"font": "Ubuntu"
			},
			{
				"name": "darkly",
				"src": "assets/themes/darkly.min.css",
				"bg": "#222",
				"primary": "#375a7f",
				"secondary": "#444",
				"success": "#00bc8c",
				"info": "#3498DB",
				"warning": "#F39C12",
				"danger": "#E74C3C",
				"link": "#00bc8c",
				"font": "Lato"
			},
			{
				"name": "flatly",
				"src": "assets/themes/flatly.min.css",
				"bg": "white",
				"primary": "#2C3E50",
				"secondary": "#95a5a6",
				"success": "#18BC9C",
				"info": "#3498DB",
				"warning": "#F39C12",
				"danger": "#E74C3C",
				"link": "#18BC9C",
				"font": "Lato"
			},
			{
				"name": "cosmo",
				"src": "assets/themes/cosmo.min.css",
				"bg": "white",
				"primary": "#2780E3",
				"secondary": "#373a3c",
				"success": "#3FB618",
				"info": "#9954BB",
				"warning": "#FF7518",
				"danger": "#FF0039",
				"link": "#2780E3",
				"font": "Segoe UI"
			},
			{
				"name": "materia",
				"src": "assets/themes/materia.min.css",
				"bg": "white",
				"primary": "#2196F3",
				"secondary": "white",
				"success": "#4CAF50",
				"info": "#9C27B0",
				"warning": "#ff9800",
				"danger": "#e51c23",
				"link": "#2196F3",
				"font": "Roboto"
			}
		],
		"dayTheme": "flatly",
		"nightTheme": "darkly",
		"defaultTheme": "united"
	},
	"statusModelConfig": {
		"statusDefaultMessage": {
			"okay": "Yes",
			"warning": "No",
			"unknown": "Unknown",
			"pending": "Pending",
			"na": "N/A"
		},
		"carrierDetailStatusLabelClass": {
			"okay": "validate-success",
			"warning": "validate-danger",
			"unknown": "validate-unknown",
			"pending": "validate-warn",
			"na": "validate-unknown"
		},
		"checkmarkIconClass": {
			"okay": "fa-check mdc-text-green-A400",
			"warning": "fa-exclamation-triangle mdc-text-red-A700",
			"unknown": "fa-question-circle mdc-text-amber-800",
			"pending": "fa-exclamation-circle mdc-text-orange-A400",
			"na": "fa-stop-circle-o"
		},
		"checkmarkContainerClass": {
			"okay": " mdc-text-green-A700",
			"warning": " mdc-text-red-A400",
			"unknown": "mdc-text-amber-800",
			"pending": " mdc-text-orange-A400",
			"na": "mdc-text-blue-800"
		},
		"searchresultsStatusClass": {
			"okay": " mdc-bg-green-A700 text-default",
			"warning": "bg-danger",
			"unknown": "bg-unknown",
			"pending": "bg-warn",
			"na": "bg-unknown"
		},
		"searchresultsStatusPanelClass": {
			"okay": "panel-success",
			"warning": "panel-danger",
			"unknown": "panel-default",
			"pending": "panel-warning",
			"na": "panel-default"
		}
	},
	"tourConfig": {
		"id": "example-tour",
		"steps": [
			{
				"title": "USP Client Core",
				"content": "Welcome to the core library test app. Here's a brief tour of the nav-header-template.",
				"target": "tour-stop-1",
				"placement": "bottom",
				"fixedElement": true
			},
			{
				"title": "USP Client Core",
				"content": "This icon toggles the privacy-screen component. This one is useful for when users need a way to quickly obscure sensitive information.",
				"target": "tour-stop-2",
				"placement": "bottom",
				"fixedElement": true,
				"xOffset": "-250",
				"arrowOffset": "250"
			},
			{
				"title": "USP Client Core",
				"content": "This icon kicks off the tour you're using now! It's driven by JSON so consuming client applications should have an easy time setting it up.",
				"target": "tour-stop-3",
				"placement": "bottom",
				"fixedElement": true,
				"xOffset": "-250",
				"arrowOffset": "250"
			},
			{
				"title": "USP Client Core",
				"content": "This icon toggles day/night mode themes.  These are configurable as well!",
				"target": "tour-stop-4",
				"placement": "bottom",
				"fixedElement": true,
				"xOffset": "-250",
				"arrowOffset": "250"
			},
			{
				"title": "USP Client Core",
				"content": "This icon shows a list of available themes.  The colors and fonts shown give a quick preview of the theme's look and feel.",
				"target": "tour-stop-5",
				"placement": "bottom",
				"fixedElement": true,
				"xOffset": "-250",
				"arrowOffset": "250"
			},
			{
				"title": "USP Client Core",
				"content": "This icon toggles the settings menu.  It has sliders for font and volume among other options.",
				"target": "tour-stop-6",
				"placement": "bottom",
				"fixedElement": true,
				"xOffset": "-250",
				"arrowOffset": "250"
			}
		]
	},
	"searchCategoryConfig": [
		{
			"name": "person",
			"displayName": "Person",
			"dataSources": ["DL", "NameMaster", "ProtectionOrder", "SexOffender"],
			"categoryIcon": "../assets/images/test_people.png",
			"fields": [
			],
			"fieldGroups": []
		},
		{
			"name": "license",
			"displayName": "License",
			"dataSources": ["DL"],
			"categoryIcon": "./assets/images/test_license_xs.png",
			"fields": [],
			"fieldGroups": [
				{
					"groupName": "License Search",
					"groupFields": [
						{
							"friendlyFieldName": "First Name",
							"internalFieldName": "firstName",
							"uniqueFieldName": "LicenseFirstName",
							"type": "text",
							"required": false
						},
						{
							"friendlyFieldName": "Middle Name",
							"internalFieldName": "middleName",
							"uniqueFieldName": "LicenseMiddleName",
							"type": "text",
							"required": false
						},
						{
							"friendlyFieldName": "Last Name",
							"internalFieldName": "lastName",
							"uniqueFieldName": "LicenseLastName",
							"type": "text",
							"required": false
						},
						{
							"friendlyFieldName": "DOB",
							"internalFieldName": "dob",
							"uniqueFieldName": "LicenseDOB",
							"type": "date",
							"required": false
						},
						{
							"friendlyFieldName": "Race",
							"internalFieldName": "race",
							"uniqueFieldName": "LicenseRace",
							"type": "reference",
							"required": false,
							"referenceItems": [
								{
									"text": "White",
									"value": "W"
								},
								{
									"text": "Black",
									"value": "B"
								},
								{
									"text": "Hispanic",
									"value": "H"
								},
								{
									"text": "O",
									"value": "O"
								},
								{
									"text": "I",
									"value": "I"
								},
								{
									"text": "X",
									"value": "X"
								}
							]
						},
						{
							"friendlyFieldName": "Sex",
							"internalFieldName": "sex",
							"uniqueFieldName": "LicenseSex",
							"type": "toggle",
							"required": false,
							"referenceItems": [
								{
									"text": "Female",
									"value": "F"
								},
								{
									"text": "Male",
									"value": "M"
								}
							]
						},
						{
							"friendlyFieldName": "Eye Color",
							"internalFieldName": "eyeColor",
							"uniqueFieldName": "LicenseEyeColor",
							"type": "reference",
							"required": false,
							"referenceItems": [
								{
									"text": "BLK",
									"value": "BLK"
								},
								{
									"text": "BLU",
									"value": "BLU"
								},
								{
									"text": "BRO",
									"value": "BRO"
								},
								{
									"text": "GRN",
									"value": "GRN"
								},
								{
									"text": "GRY",
									"value": "GRY"
								},
								{
									"text": "HAZ",
									"value": "HAZ"
								},
								{
									"text": "PNK",
									"value": "PNK"
								}
							]
						},
						{
							"friendlyFieldName": "Hair Color",
							"internalFieldName": "hairColor",
							"uniqueFieldName": "LicenseHairColor",
							"type": "reference",
							"required": false,
							"referenceItems": [
								{
									"text": "BAL",
									"value": "BAL"
								},
								{
									"text": "BLD",
									"value": "BLD"
								},
								{
									"text": "BLK",
									"value": "BLK"
								},
								{
									"text": "BLN",
									"value": "BLN"
								},
								{
									"text": "BRO",
									"value": "BRO"
								},
								{
									"text": "GRY",
									"value": "GRY"
								},
								{
									"text": "RED",
									"value": "RED"
								},
								{
									"text": "SDY",
									"value": "SDY"
								},
								{
									"text": "WHI",
									"value": "WHI"
								}
							]
						},
						{
							"friendlyFieldName": "DL #",
							"internalFieldName": "licNum",
							"uniqueFieldName": "LicenseNumber",
							"type": "text",
							"required": false
						},
						{
							"friendlyFieldName": "SSN",
							"internalFieldName": "ssn",
							"uniqueFieldName": "LicenseSSN",
							"type": "text",
							"required": false
						},
						{
							"friendlyFieldName": "Approx. Age",
							"internalFieldName": "age",
							"uniqueFieldName": "LicenseAge",
							"type": "text",
							"required": false
						},
						{
							"friendlyFieldName": "Approx. Weight",
							"internalFieldName": "weight",
							"uniqueFieldName": "LicenseWeight",
							"type": "text",
							"required": false
						},
						{
							"friendlyFieldName": "Approx. Height (Ft)",
							"internalFieldName": "heightFeet",
							"uniqueFieldName": "LicenseHeightFeet",
							"type": "text",
							"required": false
						},
						{
							"friendlyFieldName": "Approx. Height (In)",
							"internalFieldName": "heightInches",
							"uniqueFieldName": "LicenseHeightInches",
							"type": "text",
							"required": false
						},
						{
							"friendlyFieldName": "Zip",
							"internalFieldName": "zip",
							"uniqueFieldName": "LicenseZip",
							"type": "text",
							"required": false
						},
						{
							"friendlyFieldName": "County",
							"internalFieldName": "countyChoice",
							"uniqueFieldName": "LicenseCountyChoice",
							"type": "reference",
							"referenceItems": [
								{
									"text": "Statewide",
									"value": "STATEWIDE"
								},
								{
									"text": "Specific county",
									"value": "SPECIFIC"
								},
								{
									"text": "Counties touching",
									"value": "ADJACENT"
								},
								{
									"text": "Counties touching counties that touch",
									"value": "SEMIADJACENT"
								}
							],
							"required": false
						}
					]
				}
			]
		},
		{
			"name": "namemaster",
			"displayName": "Name Master",
			"dataSources": ["NameMaster"],
			"categoryIcon": "../assets/images/test_people.png",
			"fields": [],
			"fieldGroups": []
		},
		{
			"name": "sexoffender",
			"displayName": "Sex Offender",
			"dataSources": ["SexOffender"],
			"categoryIcon": "../assets/images/test_people.png",
			"fields": [],
			"fieldGroups": []
		},
		{
			"name": "doc",
			"displayName": "DOC",
			"dataSources": ["DOC"],
			"categoryIcon": "../assets/images/test_people.png",
			"fields": [],
			"fieldGroups": []
		},
		{
			"name": "warrant",
			"displayName": "Warrant",
			"dataSources": ["HotfileWarrant"],
			"categoryIcon": "../assets/images/test_people.png",
			"fields": [],
			"fieldGroups": []
		},
		{
			"name": "protectionorder",
			"displayName": "Protection Order",
			"dataSources": ["ProtectionOrder"],
			"categoryIcon": "../assets/images/test_people.png",
			"fields": [],
			"fieldGroups": []
		},
		{
			"name": "vehicle",
			"displayName": "Vehicle",
			"dataSources": ["Tag"],
			"categoryIcon": "../assets/images/test_vehicle.png",
			"fields": [],
			"fieldGroups": []
		},
		{
			"name": "vin",
			"displayName": "VIN",
			"dataSources": [
				"VIN"
			],
			"categoryIcon": "../assets/images/test_vehicle.png",
			"fields": [],
			"fieldGroups": []
		},
		{
			"name": "boat",
			"displayName": "Boat",
			"dataSources": [
				"Boat"
			],
			"categoryIcon": "../assets/images/test_vehicle.png",
			"fields": [],
			"fieldGroups": []
		},
		{
			"name": "alasafe",
			"displayName": "AlaSafe",
			"dataSources": ["AlaSafe"],
			"categoryIcon": "../assets/images/test_people.png",
			"fields": [],
			"fieldGroups": []
		},
		{
			"name": "citation",
			"displayName": "Citation",
			"dataSources": ["Citation"],
			"categoryIcon": "./assets/images/test_people_xs.png",
			"fields": [],
			"fieldGroups": [
				{
					"groupName": "Citation Search",
					"groupFields": [
						{
							"friendlyFieldName": "Tag #",
							"internalFieldName": "tagNum",
							"uniqueFieldName": "CitationTagNumber",
							"type": "text",
							"required": false
						},
						{
							"friendlyFieldName": "License #",
							"internalFieldName": "licNum",
							"uniqueFieldName": "CitationLicenseNumber",
							"type": "text",
							"required": false
						}
					]
				}
			]
		}
	],
	"resultCategoryConfig": [
		{
			"categoryName": "driver's license",
			"categoryIconName": null,
			"categoryIconSrc": null,
			"categoryColor": null
		}
	],
	"threatBadgeConfig": [
		{
			"badgeName": "Vehicular Piracy",
			"tooltip": "Vehicular Piracy",
			"keywords": [
				"vehicular piracy"
			],
			"imageSrc": "./assets/images/ThreatBadges/vehicular_piracy.png"
		},
		{
			"badgeName": "Kidnapping",
			"tooltip": "Kidnapping",
			"keywords": [
				"kidnapping",
				"abduction",
				"detention"
			],
			"imageSrc": "./assets/images/ThreatBadges/kidnapping.png"
		},
		{
			"badgeName": "Theft",
			"tooltip": "Theft",
			"keywords": [
				"theft",
				"burglary",
				"robbery",
				"shoplifting"
			],
			"imageSrc": "./assets/images/ThreatBadges/theft.png"
		},
		{
			"badgeName": "Drug Crime",
			"tooltip": "Drug charge(s) including possession of drugs or paraphernalia",
			"keywords": [
				"drug crime",
				"drug",
				"drugs",
				"substance"
			],
			"imageSrc": "./assets/images/ThreatBadges/drug_crime.png"
		},
		{
			"badgeName": "Violent Crime",
			"tooltip": "Assault, disorderly conduct or resisting arrest",
			"keywords": [
				"violent crime",
				"battery",
				"battering"
			],
			"imageSrc": "./assets/images/ThreatBadges/violent_crime.png"
		},
		{
			"badgeName": "Murder",
			"tooltip": "Caused a/multiple death(s)",
			"keywords": [
				"murder"
			],
			"imageSrc": "./assets/images/ThreatBadges/murder.png"
		},
		{
			"badgeName": "Sexual Crime",
			"tooltip": "Sexual Crime",
			"keywords": [
				"sexual assault",
				"rape"
			],
			"imageSrc": "./assets/images/ThreatBadges/sex_crime.png"
		},
		{
			"badgeName": "Death Threat",
			"tooltip": "Death Threat",
			"keywords": [
				"death threat"
			],
			"imageSrc": "./assets/images/ThreatBadges/death_threat.png"
		},
		{
			"badgeName": "HIV Exposure",
			"tooltip": "HIV Exposure",
			"keywords": [
				"exposing another to hiv"
			],
			"imageSrc": "./assets/images/ThreatBadges/hiv_exposure.png"
		},
		{
			"badgeName": "Alcohol Crime",
			"tooltip": "Alcohol offense",
			"keywords": [
				"alcohol",
				"dwi",
				"dui",
				"intoxication"
			],
			"imageSrc": "./assets/images/ThreatBadges/alcohol_offense.png"
		},
		{
			"badgeName": "Recent DUI",
			"tooltip": "DUI",
			"keywords": [
				"recent dui"
			],
			"imageSrc": "./assets/images/ThreatBadges/recent_dui.png",
			"noCount": true
		},
		{
			"badgeName": "Prohibited Firearm Possession",
			"tooltip": "Possession of a Fire Arm by Convicted Felon",
			"keywords": [
				"firearm"
			],
			"imageSrc": "./assets/images/ThreatBadges/firearm_possession.png",
			"noCount": true
		},
		{
			"badgeName": "Expired Tag",
			"tooltip": "Expired Tag",
			"keywords": [
				"expired tag"
			],
			"imageSrc": "./assets/images/ThreatBadges/expired_tag.png",
			"noCount": true
		},
		{
			"badgeName": "No Driver's License",
			"tooltip": "No Driver's License",
			"keywords": [
				"no license"
			],
			"imageSrc": "./assets/images/ThreatBadges/no_dln.png",
			"noCount": true
		},
		{
			"badgeName": "Expired Driver's License",
			"tooltip": "Expired Driver's License",
			"keywords": [
				"expired license"
			],
			"imageSrc": "./assets/images/ThreatBadges/dl_expired.png",
			"noCount": true
		},
		{
			"badgeName": "Suspended Driver's License",
			"tooltip": "Suspended Driver's License",
			"keywords": [
				"suspended license"
			],
			"imageSrc": "./assets/images/ThreatBadges/suspended_dln.png",
			"noCount": true
		},
		{
			"badgeName": "Seatbelt Violation",
			"tooltip": "Seatbelt Violation",
			"keywords": [
				"seatbelt violation"
			],
			"imageSrc": "./assets/images/ThreatBadges/no_seatbelt.png",
			"noCount": true
		},
		{
			"badgeName": "Speeding",
			"tooltip": "Speeding",
			"keywords": [
				"speeding"
			],
			"imageSrc": "./assets/images/ThreatBadges/speeding.png",
			"noCount": true
		}
	],
	"auth": {
		"redirectURI": "",
		"authorizationURL": "",
		"tokenURL": "",
		"userinfo": "",
		"api": "",
		"clientID": "",
		"scope": "",
		"callbackURL": ""
	}
}